{
  "entry": {
    "main": [
      "./scripts/main.js",
      "./styles/main.scss"
    ],
    "customizer": [
      "./scripts/customizer.js"
    ]
  },
  "publicPath": "/wp-content/themes/lascaux",
  "devUrl": "http://localhost",
  "proxyUrl": "http://localhost:3000",
  "cacheBusting": "[name]_[hash:8]",
  "watch": [
    "{app,resources/views}/**/*.php"
  ]
}
